name: AnswerAPI
description: ''
endpoints:
  -
    httpMethods:
      - GET
    uri: api/answers
    metadata:
      groupName: AnswerAPI
      groupDescription: ''
      subgroup: ''
      subgroupDescription: ''
      title: 'Display a list of answers to questions in the API'
      description: ''
      authenticated: false
      custom: []
    headers:
      Content-Type: application/json
      Accept: application/json
    urlParameters:
      'http://localhost/api/answers/':
        name: 'http://localhost/api/answers/'
        description: ''
        required: false
        example: omnis
        type: string
        custom: []
    cleanUrlParameters:
      'http://localhost/api/answers/': omnis
    queryParameters: []
    cleanQueryParameters: []
    bodyParameters:
      page:
        name: page
        description: ''
        required: false
        example: 1
        type: integer
        custom: []
      per_page:
        name: per_page
        description: ''
        required: false
        example: 4
        type: integer
        custom: []
    cleanBodyParameters:
      page: 1
      per_page: 4
    fileParameters: []
    responses:
      -
        status: 200
        content: '{"success":true,"data":{"current_page":1,"data":[{"id":1,"answer_text":"OOP stands for Object-Oriented Programming","is_correct":1,"created_at":"2023-01-29T05:00:38.000000Z","updated_at":"2023-01-29T05:00:38.000000Z","deleted_at":null},{"id":2,"answer_text":"MetaverseQL","is_correct":0,"created_at":"2023-01-29T05:00:38.000000Z","updated_at":"2023-01-29T05:00:38.000000Z","deleted_at":null},{"id":3,"answer_text":"The domain is the core business of the client","is_correct":1,"created_at":"2023-01-29T05:00:38.000000Z","updated_at":"2023-01-29T05:00:38.000000Z","deleted_at":null},{"id":4,"answer_text":"OOP places heavy emphasis on modularised coding","is_correct":1,"created_at":"2023-01-29T05:00:38.000000Z","updated_at":"2023-01-29T05:00:38.000000Z","deleted_at":null}],"first_page_url":"http:\/\/localhost\/api\/answers?page=1","from":1,"last_page":9,"last_page_url":"http:\/\/localhost\/api\/answers?page=9","links":[{"url":null,"label":"&laquo; Previous","active":false},{"url":"http:\/\/localhost\/api\/answers?page=1","label":"1","active":true},{"url":"http:\/\/localhost\/api\/answers?page=2","label":"2","active":false},{"url":"http:\/\/localhost\/api\/answers?page=3","label":"3","active":false},{"url":"http:\/\/localhost\/api\/answers?page=4","label":"4","active":false},{"url":"http:\/\/localhost\/api\/answers?page=5","label":"5","active":false},{"url":"http:\/\/localhost\/api\/answers?page=6","label":"6","active":false},{"url":"http:\/\/localhost\/api\/answers?page=7","label":"7","active":false},{"url":"http:\/\/localhost\/api\/answers?page=8","label":"8","active":false},{"url":"http:\/\/localhost\/api\/answers?page=9","label":"9","active":false},{"url":"http:\/\/localhost\/api\/answers?page=2","label":"Next &raquo;","active":false}],"next_page_url":"http:\/\/localhost\/api\/answers?page=2","path":"http:\/\/localhost\/api\/answers","per_page":4,"prev_page_url":null,"to":4,"total":33},"message":"Total of 4 Answers retrieved"}'
        headers:
          cache-control: 'no-cache, private'
          content-type: application/json
          x-ratelimit-limit: '60'
          x-ratelimit-remaining: '59'
          access-control-allow-origin: '*'
        description: null
        custom: []
    responseFields: []
    auth: []
    controller: null
    method: null
    route: null
    custom: []
  -
    httpMethods:
      - GET
    uri: api/answers/search
    metadata:
      groupName: AnswerAPI
      groupDescription: ''
      subgroup: ''
      subgroupDescription: ''
      title: 'Search for answers where text field matches search term'
      description: ''
      authenticated: false
      custom: []
    headers:
      Content-Type: application/json
      Accept: application/json
    urlParameters:
      'http://localhost/api/answers/search':
        name: 'http://localhost/api/answers/search'
        description: ''
        required: false
        example: voluptas
        type: string
        custom: []
    cleanUrlParameters:
      'http://localhost/api/answers/search': voluptas
    queryParameters: []
    cleanQueryParameters: []
    bodyParameters:
      search:
        name: search
        description: 'Must not be greater than  64 characters.'
        required: true
        example: qxfusdjghccgpxzfvqpqgiwrt
        type: string
        custom: []
    cleanBodyParameters:
      search: qxfusdjghccgpxzfvqpqgiwrt
    fileParameters: []
    responses:
      -
        status: 200
        content: |-
          {
               "success": true,
               "data": [{
                   "id": 1,
                   "answer_text": "OOP stands for Object-Oriented Programming",
                   "is_correct": 1,
                   "created_at": "2023-01-10T08:25:27.000000Z",
                   "updated_at": "2023-01-10T08:25:27.000000Z",
                   "deleted_at": null
               },
               {
                   "id": 4,
                   "answer_text": "OOP places heavy emphasis on modularised coding",
                   "is_correct": 1,
                   "created_at": "2023-01-10T08:25:27.000000Z",
                   "updated_at": "2023-01-10T08:25:27.000000Z",
                   "deleted_at": null
               },
               {
                   "id": 9,
                   "answer_text": "OOP uses classes, methods and properties",
                   "is_correct": 1,
                   "created_at": "2023-01-10T08:25:27.000000Z",
                   "updated_at": "2023-01-10T08:25:27.000000Z",
                   "deleted_at": null
               },
               {
                   "id": 14,
                   "answer_text": "OOP places heavy emphasis on functional coding",
                   "is_correct": 0,
                   "created_at": "2023-01-10T08:25:27.000000Z",
                   "updated_at": "2023-01-10T08:25:27.000000Z",
                   "deleted_at": null
               },
               {
                   "id": 16,
                   "answer_text": "OOP stands for Optional-Object Progression",
                   "is_correct": 0,
                   "created_at": "2023-01-10T08:25:27.000000Z",
                   "updated_at": "2023-01-10T08:25:27.000000Z",
                   "deleted_at": null
               }],
             "message": "5 matching Answers retrieved"
           }
        headers: []
        description: ''
        custom: []
    responseFields: []
    auth: []
    controller: null
    method: null
    route: null
    custom: []
  -
    httpMethods:
      - GET
    uri: 'api/answers/{id}'
    metadata:
      groupName: AnswerAPI
      groupDescription: ''
      subgroup: ''
      subgroupDescription: ''
      title: 'Display data on an answer in the API'
      description: ''
      authenticated: false
      custom: []
    headers:
      Content-Type: application/json
      Accept: application/json
    urlParameters:
      id:
        name: id
        description: 'The ID of the answer.'
        required: true
        example: 1
        type: integer
        custom: []
      'http://localhost/api/answers/8':
        name: 'http://localhost/api/answers/8'
        description: ''
        required: false
        example: pariatur
        type: string
        custom: []
    cleanUrlParameters:
      id: 1
      'http://localhost/api/answers/8': pariatur
    queryParameters: []
    cleanQueryParameters: []
    bodyParameters: []
    cleanBodyParameters: []
    fileParameters: []
    responses:
      -
        status: 200
        content: |-
          {
               "success": true,
               "data": {
                   "id": 8,
                   "answer_text": "Heavy Traffic Transport Packaging System",
                   "is_correct": 0,
                   "created_at": "2023-01-06T23:12:08.000000Z",
                   "updated_at": "2023-01-06T23:12:08.000000Z",
                   "deleted_at": null
               },
           "message": "Answer #8 retrieved"
          }
        headers: []
        description: ''
        custom: []
    responseFields: []
    auth: []
    controller: null
    method: null
    route: null
    custom: []
  -
    httpMethods:
      - POST
    uri: api/answers
    metadata:
      groupName: AnswerAPI
      groupDescription: ''
      subgroup: ''
      subgroupDescription: ''
      title: 'Create a new answer in the API'
      description: ''
      authenticated: false
      custom: []
    headers:
      Content-Type: application/json
      Accept: application/json
    urlParameters:
      'http://localhost/api/answers/':
        name: 'http://localhost/api/answers/'
        description: ''
        required: false
        example: et
        type: string
        custom: []
    cleanUrlParameters:
      'http://localhost/api/answers/': et
    queryParameters: []
    cleanQueryParameters: []
    bodyParameters:
      answer_text:
        name: answer_text
        description: ''
        required: false
        example: Forty-two
        type: string
        custom: []
      is_correct:
        name: is_correct
        description: ''
        required: false
        example: true
        type: boolean
        custom: []
      '???':
        name: '???'
        description: 'Example:'
        required: false
        example: 14
        type: integer
        custom: []
    cleanBodyParameters:
      answer_text: Forty-two
      is_correct: true
      '???': 14
    fileParameters: []
    responses:
      -
        status: 200
        content: |-
          {
               "success": true,
               "data": {
                   "answer_text": "Forty-four",
                   "is_correct": "1",
                   "updated_at": "2023-01-11T08:47:45.000000Z",
                   "created_at": "2023-01-11T08:47:45.000000Z",
                   "id": 31
               },
           "message": "New Answer #31 created successfully"
          }
        headers: []
        description: ''
        custom: []
    responseFields: []
    auth: []
    controller: null
    method: null
    route: null
    custom: []
  -
    httpMethods:
      - PATCH
    uri: 'api/answers/{id}'
    metadata:
      groupName: AnswerAPI
      groupDescription: ''
      subgroup: ''
      subgroupDescription: ''
      title: 'Attribute-update of the properties of an Answer in the API'
      description: ''
      authenticated: false
      custom: []
    headers:
      Content-Type: application/json
      Accept: application/json
    urlParameters:
      id:
        name: id
        description: 'The ID of the answer.'
        required: true
        example: 1
        type: integer
        custom: []
      'http://localhost/api/answers/32':
        name: 'http://localhost/api/answers/32'
        description: ''
        required: false
        example: omnis
        type: string
        custom: []
    cleanUrlParameters:
      id: 1
      'http://localhost/api/answers/32': omnis
    queryParameters: []
    cleanQueryParameters: []
    bodyParameters:
      answer_text:
        name: answer_text
        description: ''
        required: false
        example: Forty-three
        type: string
        custom: []
    cleanBodyParameters:
      answer_text: Forty-three
    fileParameters: []
    responses:
      -
        status: 200
        content: |-
          {
               "success": true,
               "data": {
                   "id": 32,
                   "answer_text": "Forty-three",
                   "created_at": "2023-01-14T23:06:21.000000Z",
                   "updated_at": "2023-01-15T05:21:14.000000Z",
                   "deleted_at": null
               },
           "message": "Answer #32 updated successfully"
          }
        headers: []
        description: ''
        custom: []
    responseFields: []
    auth: []
    controller: null
    method: null
    route: null
    custom: []
  -
    httpMethods:
      - PUT
    uri: 'api/answers/{id}'
    metadata:
      groupName: AnswerAPI
      groupDescription: ''
      subgroup: ''
      subgroupDescription: ''
      title: 'Block-update of all attributes of an answer in the API'
      description: ''
      authenticated: false
      custom: []
    headers:
      Content-Type: application/json
      Accept: application/json
    urlParameters:
      id:
        name: id
        description: 'The ID of the answer.'
        required: true
        example: 1
        type: integer
        custom: []
      'http://localhost/api/answers/32':
        name: 'http://localhost/api/answers/32'
        description: ''
        required: false
        example: vel
        type: string
        custom: []
    cleanUrlParameters:
      id: 1
      'http://localhost/api/answers/32': vel
    queryParameters: []
    cleanQueryParameters: []
    bodyParameters:
      answer_text:
        name: answer_text
        description: ''
        required: false
        example: Forty-three
        type: string
        custom: []
      is_correct:
        name: is_correct
        description: ''
        required: false
        example: false
        type: boolean
        custom: []
    cleanBodyParameters:
      answer_text: Forty-three
      is_correct: false
    fileParameters: []
    responses:
      -
        status: 200
        content: |-
          {
               "success": true,
               "data": {
                   "id": 32,
                   "answer_text": "Forty-two",
                   "is_correct": "1",
                   "created_at": "2023-01-13T13:04:31.000000Z",
                   "updated_at": "2023-01-13T15:50:00.000000Z",
                   "deleted_at": null
               },
           "message": "Answer #32 updated successfully"
          }
        headers: []
        description: ''
        custom: []
    responseFields: []
    auth: []
    controller: null
    method: null
    route: null
    custom: []
  -
    httpMethods:
      - DELETE
    uri: 'api/answers/{id}'
    metadata:
      groupName: AnswerAPI
      groupDescription: ''
      subgroup: ''
      subgroupDescription: ''
      title: 'Mark an answer record for deletion from storage (soft delete)'
      description: ''
      authenticated: false
      custom: []
    headers:
      Content-Type: application/json
      Accept: application/json
    urlParameters:
      id:
        name: id
        description: 'The ID of the answer.'
        required: true
        example: 1
        type: integer
        custom: []
      'http://localhost/api/answers/3':
        name: 'http://localhost/api/answers/3'
        description: ''
        required: false
        example: quo
        type: string
        custom: []
    cleanUrlParameters:
      id: 1
      'http://localhost/api/answers/3': quo
    queryParameters: []
    cleanQueryParameters: []
    bodyParameters: []
    cleanBodyParameters: []
    fileParameters: []
    responses:
      -
        status: 200
        content: |-
          {
               "success": true,
               "data": {
                   "id": 3,
                   "answer_text": "The domain is the core business of the client",
                   "is_correct": 1,
                   "created_at": "2023-01-12T07:52:18.000000Z",
                   "updated_at": "2023-01-12T08:36:22.000000Z",
                   "deleted_at": "2023-01-12T08:36:22.000000Z"
               },
           "message": "Answer #3 has been marked for deletion"
          }
        headers: []
        description: ''
        custom: []
    responseFields: []
    auth: []
    controller: null
    method: null
    route: null
    custom: []
