name: SkillAPI
description: ''
endpoints:
  -
    httpMethods:
      - GET
    uri: api/skills
    metadata:
      groupName: SkillAPI
      groupDescription: ''
      subgroup: ''
      subgroupDescription: ''
      title: 'Display a list of skills in the API'
      description: ''
      authenticated: false
      custom: []
    headers:
      Content-Type: application/json
      Accept: application/json
    urlParameters:
      'http://localhost/api/skills/':
        name: 'http://localhost/api/skills/'
        description: ''
        required: false
        example: inventore
        type: string
        custom: []
    cleanUrlParameters:
      'http://localhost/api/skills/': inventore
    queryParameters: []
    cleanQueryParameters: []
    bodyParameters:
      page:
        name: page
        description: ''
        required: false
        example: 2
        type: integer
        custom: []
      per_page:
        name: per_page
        description: ''
        required: false
        example: 3
        type: integer
        custom: []
    cleanBodyParameters:
      page: 2
      per_page: 3
    fileParameters: []
    responses:
      -
        status: 200
        content: '{"success":true,"data":{"current_page":2,"data":[{"id":4,"name":"Counselling","description":"ENTER DESCRIPTION HERE","field_id":7,"created_at":"2023-01-29T05:00:38.000000Z","updated_at":"2023-01-29T05:00:38.000000Z","deleted_at":null},{"id":5,"name":"Auslan","description":"ENTER DESCRIPTION HERE","field_id":7,"created_at":"2023-01-29T05:00:38.000000Z","updated_at":"2023-01-29T05:00:38.000000Z","deleted_at":null},{"id":6,"name":"Fashion Design","description":"ENTER DESCRIPTION HERE","field_id":6,"created_at":"2023-01-29T05:00:38.000000Z","updated_at":"2023-01-29T05:00:38.000000Z","deleted_at":null}],"first_page_url":"http:\/\/localhost\/api\/skills?page=1","from":4,"last_page":5,"last_page_url":"http:\/\/localhost\/api\/skills?page=5","links":[{"url":"http:\/\/localhost\/api\/skills?page=1","label":"&laquo; Previous","active":false},{"url":"http:\/\/localhost\/api\/skills?page=1","label":"1","active":false},{"url":"http:\/\/localhost\/api\/skills?page=2","label":"2","active":true},{"url":"http:\/\/localhost\/api\/skills?page=3","label":"3","active":false},{"url":"http:\/\/localhost\/api\/skills?page=4","label":"4","active":false},{"url":"http:\/\/localhost\/api\/skills?page=5","label":"5","active":false},{"url":"http:\/\/localhost\/api\/skills?page=3","label":"Next &raquo;","active":false}],"next_page_url":"http:\/\/localhost\/api\/skills?page=3","path":"http:\/\/localhost\/api\/skills","per_page":3,"prev_page_url":"http:\/\/localhost\/api\/skills?page=1","to":6,"total":13},"message":"Total of 3 Skills retrieved"}'
        headers:
          cache-control: 'no-cache, private'
          content-type: application/json
          x-ratelimit-limit: '60'
          x-ratelimit-remaining: '54'
          access-control-allow-origin: '*'
        description: null
        custom: []
    responseFields: []
    auth: []
    controller: null
    method: null
    route: null
    custom: []
  -
    httpMethods:
      - GET
    uri: api/skills/search
    metadata:
      groupName: SkillAPI
      groupDescription: ''
      subgroup: ''
      subgroupDescription: ''
      title: 'Search for skill records where name or description field matches search term'
      description: ''
      authenticated: false
      custom: []
    headers:
      Content-Type: application/json
      Accept: application/json
    urlParameters:
      'http://localhost/api/skills/search':
        name: 'http://localhost/api/skills/search'
        description: ''
        required: false
        example: omnis
        type: string
        custom: []
    cleanUrlParameters:
      'http://localhost/api/skills/search': omnis
    queryParameters: []
    cleanQueryParameters: []
    bodyParameters:
      search:
        name: search
        description: 'Must not be greater than  64 characters.'
        required: true
        example: ufznnuzlhqzfxfiffr
        type: string
        custom: []
    cleanBodyParameters:
      search: ufznnuzlhqzfxfiffr
    fileParameters: []
    responses:
      -
        status: 200
        content: |-
          {
               "success": true,
               "data": [{
                   "id": 11,
                   "name": "Business Management",
                   "description": "ENTER DESCRIPTION HERE",
                   "field_id": 5,
                   "created_at": "2023-01-10T10:26:05.000000Z",
                   "updated_at": "2023-01-10T10:26:05.000000Z",
                   "deleted_at": null
               }],
           "message": "1 matching Skill retrieved"
          }
        headers: []
        description: ''
        custom: []
    responseFields: []
    auth: []
    controller: null
    method: null
    route: null
    custom: []
  -
    httpMethods:
      - GET
    uri: 'api/skills/{id}'
    metadata:
      groupName: SkillAPI
      groupDescription: ''
      subgroup: ''
      subgroupDescription: ''
      title: 'Display data on a skill record'
      description: ''
      authenticated: false
      custom: []
    headers:
      Content-Type: application/json
      Accept: application/json
    urlParameters:
      id:
        name: id
        description: 'The ID of the skill.'
        required: true
        example: 1
        type: integer
        custom: []
      'http://localhost/api/skills/11':
        name: 'http://localhost/api/skills/11'
        description: ''
        required: false
        example: nihil
        type: string
        custom: []
    cleanUrlParameters:
      id: 1
      'http://localhost/api/skills/11': nihil
    queryParameters: []
    cleanQueryParameters: []
    bodyParameters: []
    cleanBodyParameters: []
    fileParameters: []
    responses:
      -
        status: 200
        content: |-
          {
               "success": true,
               "data": {
                   "id": 11,
                   "name": "Business Management",
                   "description": "ENTER DESCRIPTION HERE",
                   "created_at": "2023-01-06T23:12:08.000000Z",
                   "updated_at": "2023-01-06T23:12:08.000000Z",
                   "deleted_at": null,
                   "field": null,
                   "quiz": [{
                       "id": 1,
                       "title": "Quiz One",
                       "description": "BRIEF DESCRIPTION OF QUIZ TOPIC AND RULES",
                       "question_set": "[1, 4, 7, 9]",
                       "level_id": 1,
                       "field_id": 2,
                       "skill_id": 11,
                       "is_available": 1,
                       "prepared_by": 1,
                       "times_attempted": 9,
                       "fastest_time": "00:03:45",
                       "average_time": "00:05:00",
                       "created_at": "2023-01-06T23:12:08.000000Z",
                       "updated_at": "2023-01-06T23:12:08.000000Z",
                       "deleted_at": null
                   },
                   {
                       "id": 3,
                       "title": "Quiz Three",
                       "description": "BRIEF DESCRIPTION OF QUIZ TOPIC AND RULES",
                       "question_set": "[2, 3, 7, 8]",
                       "level_id": 5,
                       "field_id": 4,
                       "skill_id": 11,
                       "is_available": 1,
                       "prepared_by": 1,
                       "times_attempted": 4,
                       "fastest_time": "00:03:45",
                       "average_time": "00:05:00",
                       "created_at": "2023-01-06T23:12:08.000000Z",
                       "updated_at": "2023-01-06T23:12:08.000000Z",
                       "deleted_at": null
                   },
                   {
                       "id": 4,
                       "title": "Quiz Four",
                       "description": "BRIEF DESCRIPTION OF QUIZ TOPIC AND RULES",
                       "question_set": "[3, 4, 6, 10]",
                       "level_id": 4,
                       "field_id": 5,
                       "skill_id": 11,
                       "is_available": 1,
                       "prepared_by": 1,
                       "times_attempted": 4,
                       "fastest_time": "00:03:45",
                       "average_time": "00:05:00",
                       "created_at": "2023-01-06T23:12:08.000000Z",
                       "updated_at": "2023-01-06T23:12:08.000000Z",
                       "deleted_at": null
                   }
                ]},
            "message": "Skill #11 retrieved"
          }
        headers: []
        description: ''
        custom: []
    responseFields: []
    auth: []
    controller: null
    method: null
    route: null
    custom: []
  -
    httpMethods:
      - POST
    uri: api/skills
    metadata:
      groupName: SkillAPI
      groupDescription: ''
      subgroup: ''
      subgroupDescription: ''
      title: 'Create a new skill area in the API'
      description: ''
      authenticated: false
      custom: []
    headers:
      Content-Type: application/json
      Accept: application/json
    urlParameters:
      'http://localhost/api/skills/':
        name: 'http://localhost/api/skills/'
        description: ''
        required: false
        example: quo
        type: string
        custom: []
    cleanUrlParameters:
      'http://localhost/api/skills/': quo
    queryParameters: []
    cleanQueryParameters: []
    bodyParameters:
      name:
        name: name
        description: ''
        required: false
        example: Robotics
        type: string
        custom: []
      description:
        name: description
        description: ''
        required: false
        example: 'Studies in Robotics incorporates engineering skills and computing.'
        type: string
        custom: []
      field_id:
        name: field_id
        description: ''
        required: false
        example: 4
        type: integer
        custom: []
    cleanBodyParameters:
      name: Robotics
      description: 'Studies in Robotics incorporates engineering skills and computing.'
      field_id: 4
    fileParameters: []
    responses:
      -
        status: 200
        content: |-
          {
               "success": true,
               "data": {
                   "name": "Robotics",
                   "description": "Studies in Robotics incorporates engineering and computing skills.",
                   "field_id": "4",
                   "updated_at": "2023-01-29T12:29:01.000000Z",
                   "created_at": "2023-01-29T12:29:01.000000Z",
                   "id": 13
               },
           "message": "New Skill #13 created successfully"
          }
        headers: []
        description: ''
        custom: []
    responseFields: []
    auth: []
    controller: null
    method: null
    route: null
    custom: []
  -
    httpMethods:
      - PATCH
    uri: 'api/skills/{id}'
    metadata:
      groupName: SkillAPI
      groupDescription: ''
      subgroup: ''
      subgroupDescription: ''
      title: 'Attribute-update of the properties of a Skill in the API'
      description: ''
      authenticated: false
      custom: []
    headers:
      Content-Type: application/json
      Accept: application/json
    urlParameters:
      id:
        name: id
        description: 'The ID of the skill.'
        required: true
        example: 1
        type: integer
        custom: []
      'http://localhost/api/skills/5':
        name: 'http://localhost/api/skills/5'
        description: ''
        required: false
        example: sequi
        type: string
        custom: []
    cleanUrlParameters:
      id: 1
      'http://localhost/api/skills/5': sequi
    queryParameters: []
    cleanQueryParameters: []
    bodyParameters:
      name:
        name: name
        description: ''
        required: false
        example: 'Media Studies'
        type: string
        custom: []
    cleanBodyParameters:
      name: 'Media Studies'
    fileParameters: []
    responses:
      -
        status: 200
        content: |-
          {
               "success": true,
               "data": {
                   "id": 5,
                   "name": "Media Studies",
                   "description": "ENTER DESCRIPTION HERE",
                   "field_id": 7,
                   "created_at": "2023-01-14T22:58:45.000000Z",
                   "updated_at": "2023-01-15T08:04:42.000000Z",
                   "deleted_at": null
               },
           "message": "Skill #5 updated successfully"
          }
        headers: []
        description: ''
        custom: []
    responseFields: []
    auth: []
    controller: null
    method: null
    route: null
    custom: []
  -
    httpMethods:
      - PUT
    uri: 'api/skills/{id}'
    metadata:
      groupName: SkillAPI
      groupDescription: ''
      subgroup: ''
      subgroupDescription: ''
      title: 'Block-update of all attributes of a skill in the API'
      description: ''
      authenticated: false
      custom: []
    headers:
      Content-Type: application/json
      Accept: application/json
    urlParameters:
      id:
        name: id
        description: 'The ID of the skill.'
        required: true
        example: 1
        type: integer
        custom: []
      'http://localhost/api/skills/11':
        name: 'http://localhost/api/skills/11'
        description: ''
        required: false
        example: omnis
        type: string
        custom: []
    cleanUrlParameters:
      id: 1
      'http://localhost/api/skills/11': omnis
    queryParameters: []
    cleanQueryParameters: []
    bodyParameters:
      name:
        name: name
        description: ''
        required: false
        example: 'Corporate Skills Management'
        type: string
        custom: []
      description:
        name: description
        description: ''
        required: false
        example: 'Learn the essential skills required to ascend the corporate ladder.'
        type: string
        custom: []
      field_id:
        name: field_id
        description: ''
        required: false
        example: 5
        type: integer
        custom: []
    cleanBodyParameters:
      name: 'Corporate Skills Management'
      description: 'Learn the essential skills required to ascend the corporate ladder.'
      field_id: 5
    fileParameters: []
    responses:
      -
        status: 200
        content: |-
          {
               "success": true,
               "data": {
                   "id": 11,
                   "name": "Corporate Skills Management",
                   "description": "Learn the essential skills required to ascend the corporate ladder.",
                   "field_id": 5,
                   "created_at": "2023-01-13T12:17:39.000000Z",
                   "updated_at": "2023-01-13T16:03:28.000000Z",
                   "deleted_at": null
               },
           "message": "Skill #11 updated successfully"
          }
        headers: []
        description: ''
        custom: []
    responseFields: []
    auth: []
    controller: null
    method: null
    route: null
    custom: []
  -
    httpMethods:
      - DELETE
    uri: 'api/skills/{id}'
    metadata:
      groupName: SkillAPI
      groupDescription: ''
      subgroup: ''
      subgroupDescription: ''
      title: 'Mark a skill record for deletion from storage (soft delete)'
      description: ''
      authenticated: false
      custom: []
    headers:
      Content-Type: application/json
      Accept: application/json
    urlParameters:
      id:
        name: id
        description: 'The ID of the skill.'
        required: true
        example: 1
        type: integer
        custom: []
      'http://localhost/api/skills/3':
        name: 'http://localhost/api/skills/3'
        description: ''
        required: false
        example: laboriosam
        type: string
        custom: []
    cleanUrlParameters:
      id: 1
      'http://localhost/api/skills/3': laboriosam
    queryParameters: []
    cleanQueryParameters: []
    bodyParameters: []
    cleanBodyParameters: []
    fileParameters: []
    responses:
      -
        status: 200
        content: |-
          {
               "success": true,
               "data": {
                   "id": 3,
                   "name": "Networking",
                   "description": "ENTER DESCRIPTION HERE",
                   "field_id": 11,
                   "created_at": "2023-01-12T07:52:18.000000Z",
                   "updated_at": "2023-01-12T08:50:11.000000Z",
                   "deleted_at": "2023-01-12T08:50:11.000000Z"
               },
           "message": "Skill #3 has been marked for deletion"
          }
        headers: []
        description: ''
        custom: []
    responseFields: []
    auth: []
    controller: null
    method: null
    route: null
    custom: []
