name: CountryAPI
description: ''
endpoints:
  -
    httpMethods:
      - GET
    uri: api/countries
    metadata:
      groupName: CountryAPI
      groupDescription: ''
      subgroup: ''
      subgroupDescription: ''
      title: 'Display a list of available countries in the API'
      description: ''
      authenticated: false
      custom: []
    headers:
      Content-Type: application/json
      Accept: application/json
    urlParameters:
      'http://localhost/api/countries/':
        name: 'http://localhost/api/countries/'
        description: ''
        required: false
        example: est
        type: string
        custom: []
    cleanUrlParameters:
      'http://localhost/api/countries/': est
    queryParameters: []
    cleanQueryParameters: []
    bodyParameters:
      page:
        name: page
        description: ''
        required: false
        example: 1
        type: integer
        custom: []
      per_page:
        name: per_page
        description: ''
        required: false
        example: 5
        type: integer
        custom: []
    cleanBodyParameters:
      page: 1
      per_page: 5
    fileParameters: []
    responses:
      -
        status: 200
        content: '{"success":true,"data":{"current_page":1,"data":[{"id":4,"name":"Afghanistan","code_2":"AF","code_3":"AFG","created_at":"2023-01-29T05:00:37.000000Z","updated_at":"2023-01-29T05:00:37.000000Z"},{"id":8,"name":"Albania","code_2":"AL","code_3":"ALB","created_at":"2023-01-29T05:00:37.000000Z","updated_at":"2023-01-29T05:00:37.000000Z"},{"id":12,"name":"Algeria","code_2":"DZ","code_3":"DZA","created_at":"2023-01-29T05:00:37.000000Z","updated_at":"2023-01-29T05:00:37.000000Z"},{"id":16,"name":"American Samoa","code_2":"AS","code_3":"ASM","created_at":"2023-01-29T05:00:37.000000Z","updated_at":"2023-01-29T05:00:37.000000Z"},{"id":20,"name":"Andorra","code_2":"AD","code_3":"AND","created_at":"2023-01-29T05:00:37.000000Z","updated_at":"2023-01-29T05:00:37.000000Z"}],"first_page_url":"http:\/\/localhost\/api\/countries?page=1","from":1,"last_page":46,"last_page_url":"http:\/\/localhost\/api\/countries?page=46","links":[{"url":null,"label":"&laquo; Previous","active":false},{"url":"http:\/\/localhost\/api\/countries?page=1","label":"1","active":true},{"url":"http:\/\/localhost\/api\/countries?page=2","label":"2","active":false},{"url":"http:\/\/localhost\/api\/countries?page=3","label":"3","active":false},{"url":"http:\/\/localhost\/api\/countries?page=4","label":"4","active":false},{"url":"http:\/\/localhost\/api\/countries?page=5","label":"5","active":false},{"url":"http:\/\/localhost\/api\/countries?page=6","label":"6","active":false},{"url":"http:\/\/localhost\/api\/countries?page=7","label":"7","active":false},{"url":"http:\/\/localhost\/api\/countries?page=8","label":"8","active":false},{"url":"http:\/\/localhost\/api\/countries?page=9","label":"9","active":false},{"url":"http:\/\/localhost\/api\/countries?page=10","label":"10","active":false},{"url":null,"label":"...","active":false},{"url":"http:\/\/localhost\/api\/countries?page=45","label":"45","active":false},{"url":"http:\/\/localhost\/api\/countries?page=46","label":"46","active":false},{"url":"http:\/\/localhost\/api\/countries?page=2","label":"Next &raquo;","active":false}],"next_page_url":"http:\/\/localhost\/api\/countries?page=2","path":"http:\/\/localhost\/api\/countries","per_page":5,"prev_page_url":null,"to":5,"total":228},"message":"Total of 5 Countries retrieved"}'
        headers:
          cache-control: 'no-cache, private'
          content-type: application/json
          x-ratelimit-limit: '60'
          x-ratelimit-remaining: '52'
          access-control-allow-origin: '*'
        description: null
        custom: []
    responseFields: []
    auth: []
    controller: null
    method: null
    route: null
    custom: []
  -
    httpMethods:
      - GET
    uri: api/countries/search
    metadata:
      groupName: CountryAPI
      groupDescription: ''
      subgroup: ''
      subgroupDescription: ''
      title: 'Search for Country records where name or country code field matches search term'
      description: ''
      authenticated: false
      custom: []
    headers:
      Content-Type: application/json
      Accept: application/json
    urlParameters:
      'http://localhost/api/countries/search':
        name: 'http://localhost/api/countries/search'
        description: ''
        required: false
        example: voluptatem
        type: string
        custom: []
    cleanUrlParameters:
      'http://localhost/api/countries/search': voluptatem
    queryParameters: []
    cleanQueryParameters: []
    bodyParameters:
      search:
        name: search
        description: 'Must not be greater than  64 characters.'
        required: true
        example: wsyutjwobts
        type: string
        custom: []
    cleanBodyParameters:
      search: wsyutjwobts
    fileParameters: []
    responses:
      -
        status: 200
        content: |-
          {
               "success": true,
               "data": [{
                   "id": 36,
                   "name": "Australia",
                   "code_2": "AU",
                   "code_3": "AUS",
                   "created_at": "2023-01-16T12:13:28.000000Z",
                   "updated_at": "2023-01-16T12:13:28.000000Z"
               },
               {
                   "id": 40,
                   "name": "Austria",
                   "code_2": "AT",
                   "code_3": "AUT",
                   "created_at": "2023-01-16T12:13:28.000000Z",
                   "updated_at": "2023-01-16T12:13:28.000000Z"
               }],
           "message": "2 matching Countries retrieved"
          }
        headers: []
        description: ''
        custom: []
    responseFields: []
    auth: []
    controller: null
    method: null
    route: null
    custom: []
  -
    httpMethods:
      - GET
    uri: 'api/countries/{id}'
    metadata:
      groupName: CountryAPI
      groupDescription: ''
      subgroup: ''
      subgroupDescription: ''
      title: 'Display data on a Country in the API'
      description: ''
      authenticated: false
      custom: []
    headers:
      Content-Type: application/json
      Accept: application/json
    urlParameters:
      id:
        name: id
        description: 'The ID of the country.'
        required: true
        example: 4
        type: integer
        custom: []
      'http://localhost/api/countries/100':
        name: 'http://localhost/api/countries/100'
        description: ''
        required: false
        example: dolorem
        type: string
        custom: []
    cleanUrlParameters:
      id: 4
      'http://localhost/api/countries/100': dolorem
    queryParameters: []
    cleanQueryParameters: []
    bodyParameters: []
    cleanBodyParameters: []
    fileParameters: []
    responses:
      -
        status: 200
        content: |-
          {
               "success": true,
               "data": {
                   "id": 100,
                   "name": "Bulgaria",
                   "code_2": "BG",
                   "code_3": "BGR",
                   "created_at": "2023-01-16T12:13:28.000000Z",
                   "updated_at": "2023-01-16T12:13:28.000000Z"
               },
           "message": "Country #100 retrieved"
          }
        headers: []
        description: ''
        custom: []
    responseFields: []
    auth: []
    controller: null
    method: null
    route: null
    custom: []
