## Autogenerated by Scribe. DO NOT MODIFY.

name: QuestionAPI
description: ''
endpoints:
  -
    httpMethods:
      - GET
    uri: api/questions
    metadata:
      groupName: QuestionAPI
      groupDescription: ''
      subgroup: ''
      subgroupDescription: ''
      title: 'Display a list of available questions to be used within PLUMS quizzes in the API'
      description: ''
      authenticated: false
      custom: []
    headers:
      Content-Type: application/json
      Accept: application/json
    urlParameters:
      'http://localhost/api/questions/':
        name: 'http://localhost/api/questions/'
        description: ''
        required: false
        example: rem
        type: string
        custom: []
    cleanUrlParameters:
      'http://localhost/api/questions/': rem
    queryParameters: []
    cleanQueryParameters: []
    bodyParameters:
      page:
        name: page
        description: ''
        required: false
        example: 2
        type: integer
        custom: []
      per_page:
        name: per_page
        description: ''
        required: false
        example: 3
        type: integer
        custom: []
    cleanBodyParameters:
      page: 2
      per_page: 3
    fileParameters: []
    responses:
      -
        status: 200
        content: '{"success":true,"data":{"current_page":2,"data":{"0":{"id":4,"question_text":"Read the following definition carefully: Abstraction is the provision of essential information to the outside world, whilst hiding the details of how that data is stored and manipulated.","answer_set":"[27, 30]","points_value":1,"is_available":0,"written_by":2,"times_used":0,"times_answered_correctly":0,"times_answered_incorrectly":0,"answers":null,"created_at":"2023-01-29T05:00:38.000000Z","updated_at":"2023-01-29T05:00:38.000000Z","deleted_at":null},"1":{"id":5,"question_text":"Read the following definition carefully: Modularization is the capability to create a new class based upon the blueprint, or template, provided by an existing class.","answer_set":"[28, 29]","points_value":0.5,"is_available":1,"written_by":2,"times_used":1,"times_answered_correctly":0,"times_answered_incorrectly":0,"answers":null,"created_at":"2023-01-29T05:00:38.000000Z","updated_at":"2023-01-29T05:00:38.000000Z","deleted_at":null},"2":{"id":6,"question_text":"What is the commonly known name for the NOSQL language developed by Facebook?","answer_set":"[2, 6, 18]","points_value":1,"is_available":1,"written_by":2,"times_used":2,"times_answered_correctly":0,"times_answered_incorrectly":0,"answers":null,"created_at":"2023-01-29T05:00:38.000000Z","updated_at":"2023-01-29T05:00:38.000000Z","deleted_at":null},"answers":null},"first_page_url":"http:\/\/localhost\/api\/questions?page=1","from":4,"last_page":4,"last_page_url":"http:\/\/localhost\/api\/questions?page=4","links":[{"url":"http:\/\/localhost\/api\/questions?page=1","label":"&laquo; Previous","active":false},{"url":"http:\/\/localhost\/api\/questions?page=1","label":"1","active":false},{"url":"http:\/\/localhost\/api\/questions?page=2","label":"2","active":true},{"url":"http:\/\/localhost\/api\/questions?page=3","label":"3","active":false},{"url":"http:\/\/localhost\/api\/questions?page=4","label":"4","active":false},{"url":"http:\/\/localhost\/api\/questions?page=3","label":"Next &raquo;","active":false}],"next_page_url":"http:\/\/localhost\/api\/questions?page=3","path":"http:\/\/localhost\/api\/questions","per_page":3,"prev_page_url":"http:\/\/localhost\/api\/questions?page=1","to":7,"total":11},"message":"Total of 4 Questions retrieved"}'
        headers:
          cache-control: 'no-cache, private'
          content-type: application/json
          x-ratelimit-limit: '60'
          x-ratelimit-remaining: '56'
          access-control-allow-origin: '*'
        description: null
        custom: []
    responseFields: []
    auth: []
    controller: null
    method: null
    route: null
    custom: []
  -
    httpMethods:
      - GET
    uri: api/questions/search
    metadata:
      groupName: QuestionAPI
      groupDescription: ''
      subgroup: ''
      subgroupDescription: ''
      title: 'Search for PLUMS quiz questions where the text field matches search term'
      description: ''
      authenticated: false
      custom: []
    headers:
      Content-Type: application/json
      Accept: application/json
    urlParameters:
      'http://localhost/api/questions/search':
        name: 'http://localhost/api/questions/search'
        description: ''
        required: false
        example: totam
        type: string
        custom: []
    cleanUrlParameters:
      'http://localhost/api/questions/search': totam
    queryParameters: []
    cleanQueryParameters: []
    bodyParameters:
      search:
        name: search
        description: 'Must not be greater than  64 characters.'
        required: true
        example: vfrecdgtydqwkpg
        type: string
        custom: []
    cleanBodyParameters:
      search: vfrecdgtydqwkpg
    fileParameters: []
    responses:
      -
        status: 200
        content: |-
          {
               "success": true,
               "data": [{
                   "id": 2,
                   "question_text": "Which of the following statements apply to SQL?",
                   "answer_set": "[7, 12, 15, 20]",
                   "points_value": 5,
                   "is_available": 1,
                   "written_by": 1,
                   "times_used": 0,
                   "times_answered_correctly": 0,
                   "times_answered_incorrectly": 0,
                   "answers": null,
                   "created_at": "2023-01-10T08:25:27.000000Z",
                   "updated_at": "2023-01-10T08:25:27.000000Z",
                   "deleted_at": null
               },
               {
                   "id": 6,
                   "question_text": "What is the commonly known name for the NOSQL language developed by Facebook?",
                   "answer_set": "[2, 6, 18]",
                   "points_value": 1,
                   "is_available": 1,
                   "written_by": 1,
                   "times_used": 0,
                   "times_answered_correctly": 0,
                   "times_answered_incorrectly": 0,
                   "answers": null,
                   "created_at": "2023-01-10T08:25:27.000000Z",
                   "updated_at": "2023-01-10T08:25:27.000000Z",
                   "deleted_at": null
               }],
           "message": "2 matching Questions retrieved"
          }
        headers: []
        description: ''
        custom: []
    responseFields: []
    auth: []
    controller: null
    method: null
    route: null
    custom: []
  -
    httpMethods:
      - GET
    uri: 'api/questions/{id}'
    metadata:
      groupName: QuestionAPI
      groupDescription: ''
      subgroup: ''
      subgroupDescription: ''
      title: 'Display data on a PLUMS quiz question in the API'
      description: ''
      authenticated: false
      custom: []
    headers:
      Content-Type: application/json
      Accept: application/json
    urlParameters:
      id:
        name: id
        description: 'The ID of the question.'
        required: true
        example: 1
        type: integer
        custom: []
      'http://localhost/api/questions/7':
        name: 'http://localhost/api/questions/7'
        description: ''
        required: false
        example: numquam
        type: string
        custom: []
    cleanUrlParameters:
      id: 1
      'http://localhost/api/questions/7': numquam
    queryParameters: []
    cleanQueryParameters: []
    bodyParameters: []
    cleanBodyParameters: []
    fileParameters: []
    responses:
      -
        status: 200
        content: |-
          {
               "success": true,
               "data": {
                   "id": 7,
                   "question_text": "There are many terms relating to security with regards to the Web. Which of the following statements are most appropriate to define Authentication?",
                   "answer_set": "[11, 19, 25]",
                   "points_value": 0.5,
                   "is_available": 1,
                   "written_by": 1,
                   "times_used": 2,
                   "times_answered_correctly": 0,
                   "times_answered_incorrectly": 0,
                   "answers": [{
                           "id": 11,
                           "answer_text": "Authentication is the process of 'logging into' a web application",
                           "is_correct": 1,
                           "created_at": "2023-01-29T05:00:38.000000Z",
                           "updated_at": "2023-01-29T05:00:38.000000Z",
                           "deleted_at": null
                       },
                       {
                           "id": 19,
                           "answer_text": "Authentication helps the programmer to identify the real elements of an application",
                           "is_correct": 0,
                           "created_at": "2023-01-29T05:00:38.000000Z",
                           "updated_at": "2023-01-29T05:00:38.000000Z",
                           "deleted_at": null
                       },
                       {
                           "id": 25,
                           "answer_text": "Authentication often uses recycled passwords to provide a more secure system",
                           "is_correct": 0,
                           "created_at": "2023-01-29T05:00:38.000000Z",
                           "updated_at": "2023-01-29T05:00:38.000000Z",
                           "deleted_at": null
                       }],
                       "created_at": "2023-01-29T05:00:38.000000Z",
                       "updated_at": "2023-01-29T05:00:38.000000Z",
                       "deleted_at": null
                   },
               "message": "Question #7 retrieved"
             }
        headers: []
        description: ''
        custom: []
    responseFields: []
    auth: []
    controller: null
    method: null
    route: null
    custom: []
  -
    httpMethods:
      - POST
    uri: api/questions
    metadata:
      groupName: QuestionAPI
      groupDescription: ''
      subgroup: ''
      subgroupDescription: ''
      title: 'Create a new PLUMS question in the API'
      description: ''
      authenticated: false
      custom: []
    headers:
      Content-Type: application/json
      Accept: application/json
    urlParameters:
      'http://localhost/api/questions/':
        name: 'http://localhost/api/questions/'
        description: ''
        required: false
        example: et
        type: string
        custom: []
    cleanUrlParameters:
      'http://localhost/api/questions/': et
    queryParameters: []
    cleanQueryParameters: []
    bodyParameters:
      question_text:
        name: question_text
        description: ''
        required: false
        example: 'What is the answer to life, the universe and everything ??'
        type: string
        custom: []
      answer_set:
        name: answer_set
        description: ''
        required: false
        example:
          - 31
          - 32
          - 33
        type: 'string[]'
        custom: []
      points_value:
        name: points_value
        description: ''
        required: false
        example: 5
        type: integer
        custom: []
      is_available:
        name: is_available
        description: ''
        required: false
        example: true
        type: boolean
        custom: []
    cleanBodyParameters:
      question_text: 'What is the answer to life, the universe and everything ??'
      answer_set:
        - 31
        - 32
        - 33
      points_value: 5
      is_available: true
    fileParameters: []
    responses:
      -
        status: 200
        content: |-
          {
               "success": true,
               "data": {
                   "question_text": "What is the answer to life, the universe and everything ??",
                   "answer_set": "[31, 32, 33]",
                   "points_value": "5",
                   "is_available": "1",
                   "updated_at": "2023-01-12T06:45:52.000000Z",
                   "created_at": "2023-01-12T06:45:52.000000Z",
                   "id": 11,
                   "written_by": 2
               },
           "message": "New Question #11 created successfully"
          }
        headers: []
        description: ''
        custom: []
    responseFields: []
    auth: []
    controller: null
    method: null
    route: null
    custom: []
  -
    httpMethods:
      - PATCH
    uri: 'api/questions/{id}'
    metadata:
      groupName: QuestionAPI
      groupDescription: ''
      subgroup: ''
      subgroupDescription: ''
      title: 'Attribute-update of the properties of a Question in the API'
      description: ''
      authenticated: false
      custom: []
    headers:
      Content-Type: application/json
      Accept: application/json
    urlParameters:
      id:
        name: id
        description: 'The ID of the question.'
        required: true
        example: 1
        type: integer
        custom: []
      'http://localhost/api/questions/5':
        name: 'http://localhost/api/questions/5'
        description: ''
        required: false
        example: delectus
        type: string
        custom: []
    cleanUrlParameters:
      id: 1
      'http://localhost/api/questions/5': delectus
    queryParameters: []
    cleanQueryParameters: []
    bodyParameters:
      answer_text:
        name: answer_text
        description: ''
        required: false
        example: 'This quiz will determine your knowledge of networks, servers and routers.'
        type: string
        custom: []
    cleanBodyParameters:
      answer_text: 'This quiz will determine your knowledge of networks, servers and routers.'
    fileParameters: []
    responses:
      -
        status: 200
        content: |-
          {
               "success": true,
               "data": {
                   "id": 5,
                   "question_text": "This quiz will determine your knowledge of networks, servers and routers.",
                   "answer_set": "[28, 29]",
                   "points_value": 0.5,
                   "is_available": 1,
                   "written_by": 2,
                   "times_used": 1,
                   "times_answered_correctly": 0,
                   "times_answered_incorrectly": 0,
                   "answers": null,
                   "created_at": "2023-01-14T22:58:45.000000Z",
                   "updated_at": "2023-01-15T06:37:46.000000Z",
                   "deleted_at": null
               },
           "message": "Question #5 updated successfully"
          }
        headers: []
        description: ''
        custom: []
    responseFields: []
    auth: []
    controller: null
    method: null
    route: null
    custom: []
  -
    httpMethods:
      - PUT
    uri: 'api/questions/{id}'
    metadata:
      groupName: QuestionAPI
      groupDescription: ''
      subgroup: ''
      subgroupDescription: ''
      title: 'Block-update of all attributes of a PLUMS question in the API'
      description: ''
      authenticated: false
      custom: []
    headers:
      Content-Type: application/json
      Accept: application/json
    urlParameters:
      id:
        name: id
        description: 'The ID of the question.'
        required: true
        example: 1
        type: integer
        custom: []
      'http://localhost/api/questions/3':
        name: 'http://localhost/api/questions/3'
        description: ''
        required: false
        example: labore
        type: string
        custom: []
    cleanUrlParameters:
      id: 1
      'http://localhost/api/questions/3': labore
    queryParameters: []
    cleanQueryParameters: []
    bodyParameters:
      question_text:
        name: question_text
        description: ''
        required: false
        example: 'What is the meaning of Life??'
        type: string
        custom: []
      answer_set:
        name: answer_set
        description: ''
        required: false
        example:
          - 1
          - 8
          - 9
          - 15
        type: 'string[]'
        custom: []
      points_value:
        name: points_value
        description: ''
        required: false
        example: 3
        type: integer
        custom: []
      is_available:
        name: is_available
        description: ''
        required: false
        example: true
        type: boolean
        custom: []
      written_by:
        name: written_by
        description: ''
        required: false
        example: 2
        type: integer
        custom: []
      times_used:
        name: times_used
        description: ''
        required: false
        example: 4
        type: integer
        custom: []
      times_answered_correctly:
        name: times_answered_correctly
        description: ''
        required: true
        example: 18
        type: integer
        custom: []
      times_answered_incorrectly:
        name: times_answered_incorrectly
        description: ''
        required: true
        example: 18
        type: integer
        custom: []
      times_answer_correctly:
        name: times_answer_correctly
        description: ''
        required: false
        example: 5
        type: integer
        custom: []
      times_answer_incorrectly:
        name: times_answer_incorrectly
        description: ''
        required: false
        example: 15
        type: integer
        custom: []
    cleanBodyParameters:
      question_text: 'What is the meaning of Life??'
      answer_set:
        - 1
        - 8
        - 9
        - 15
      points_value: 3
      is_available: true
      written_by: 2
      times_used: 4
      times_answered_correctly: 18
      times_answered_incorrectly: 18
      times_answer_correctly: 5
      times_answer_incorrectly: 15
    fileParameters: []
    responses:
      -
        status: 200
        content: |-
          {
               "success": true,
               "data": {
               "id": 4,
                   "question_text": "What is the meaning of Life ??",
                   "answer_set": "[1, 8, 9, 15]",
                   "points_value": "3",
                   "is_available": "1",
                   "written_by": "2",
                   "times_used": "4",
                   "times_answered_correctly": "5",
                   "times_answered_incorrectly": "15",
                   "answers": null,
          "          created_at": "2023-01-13T20:40:24.000000Z",
                   "updated_at": "2023-01-13T23:01:09.000000Z",
                   "deleted_at": null
               },
           "message": "Question #4 updated successfully"
          }
        headers: []
        description: ''
        custom: []
    responseFields: []
    auth: []
    controller: null
    method: null
    route: null
    custom: []
  -
    httpMethods:
      - DELETE
    uri: 'api/questions/{id}'
    metadata:
      groupName: QuestionAPI
      groupDescription: ''
      subgroup: ''
      subgroupDescription: ''
      title: 'Mark a PLUMS question record for deletion from storage (soft delete)'
      description: ''
      authenticated: false
      custom: []
    headers:
      Content-Type: application/json
      Accept: application/json
    urlParameters:
      id:
        name: id
        description: 'The ID of the question.'
        required: true
        example: 1
        type: integer
        custom: []
      'http://localhost/api/questions/11':
        name: 'http://localhost/api/questions/11'
        description: ''
        required: false
        example: vero
        type: string
        custom: []
    cleanUrlParameters:
      id: 1
      'http://localhost/api/questions/11': vero
    queryParameters: []
    cleanQueryParameters: []
    bodyParameters: []
    cleanBodyParameters: []
    fileParameters: []
    responses:
      -
        status: 200
        content: |-
          {
               "success": true,
               "data": {
                   "id": 11,
                   "question_text": "What is the answer to life, the universe and everything ??",
                   "answer_set": "[31, 32, 33]",
                   "points_value": 5,
                   "is_available": 1,
                   "written_by": null,
                   "times_used": 0,
                   "times_answered_correctly": 0,
                   "times_answered_incorrectly": 0,
                   "answers": null,
                   "created_at": "2023-01-12T08:20:02.000000Z",
                   "updated_at": "2023-01-12T08:44:19.000000Z",
                   "deleted_at": "2023-01-12T08:44:19.000000Z"
               },
           "message": "Question #11 has been marked for deletion"
          }
        headers: []
        description: ''
        custom: []
    responseFields: []
    auth: []
    controller: null
    method: null
    route: null
    custom: []
